%YAML 1.1
%TAG !u! tag:unity3d.com,2011:
--- !u!1045 &1
EditorBuildSettings:
  m_ObjectHideFlags: 0
  serializedVersion: 2
  m_Scenes:
  - enabled: 1
    path: Assets/BRP/Scenes/Menu.unity
    guid: e6d3349644e10374590ffbe7a402a617
  - enabled: 1
    path: Assets/BRP/Scenes/Game1.unity
    guid: 09598e8e8de61504182a798df1ecef97
